In class Activity
…
2 In-Text Citations - BibTex

Recent Star wars movie is - (Abrams ⊕2019Abrams, J.J., dir. 2019. Star Wars: Episode Ix - the Rise of Skywalker.),

A book on the same - (Carson ⊕2020Carson, R. 2020. Star Wars: The Rise of Skywalker: Expanded Edition.).

We will be analyzing the Star Wars data set, which is already loaded into tidyverse and has:

Chunk with 3+ settings

Using code from external r script

Dataset - starwars data

## # A tibble: 87 x 13
##    name  height  mass hair_color skin_color eye_color birth_year gender
##    <chr>  <int> <dbl> <chr>      <chr>      <chr>          <dbl> <chr> 
##  1 Luke    172    77 blond      fair       blue            19   male  
##  2 C-3PO    167    75 <NA>       gold       yellow         112   <NA>  
##  3 R2-D2     96    32 <NA>       white, bl red             33   <NA>  
##  4 Dart    202   136 none       white      yellow          41.9 male  
##  5 Leia    150    49 brown      light      brown           19   female
##  6 Owen    178   120 brown, gr light      blue            52   male  
##  7 Beru    165    75 brown      light      blue            47   female
##  8 R5-D4     97    32 <NA>       white, red red             NA   <NA>  
##  9 Bigg    183    84 black      light      brown           24   male  
## 10 Obi-    182    77 auburn, w fair       blue-gray       57   male  
## #  with 77 more rows, and 5 more variables: homeworld <chr>, species <chr>,
## #   films <list>, vehicles <list>, starships <list>
…
